…
    ## Warning: There were 44 warnings in `mutate()`.
    ## The first warning was:
    ## ℹ In argument: `tidy_results = map(glm_fit, ~broom::tidy(.x, conf.int = TRUE,
    ##   exponentiate = TRUE))`.
    ## ℹ In group 1: `city_state = "Albuquerque,NM"`.
    ## Caused by warning:
    ## ! glm.fit: fitted probabilities numerically 0 or 1 occurred
    ## ℹ Run `dplyr::last_dplyr_warnings()` to see the 43 remaining warnings.

``` r
city_regressions
```

    ## # A tibble: 47 × 5
    ## # Groups:   city_state [47]
    ##    city_state       estimate conf.low conf.high p.value
    ##    <fct>               <dbl>    <dbl>     <dbl>   <dbl>
    ##  1 Albuquerque,NM      1.77     0.825      3.76   0.139
    ##  2 Stockton,CA         1.35     0.626      2.99   0.447
    ##  3 Fresno,CA           1.34     0.567      3.05   0.496
    ##  4 Nashville,TN        1.03     0.681      1.56   0.873
    ##  5 Richmond,VA         1.01     0.483      1.99   0.987
    ##  6 Atlanta,GA          1.00     0.680      1.46   1.00 
    ##  7 Tulsa,OK            0.976    0.609      1.54   0.917
    ##  8 Oklahoma City,OK    0.974    0.623      1.52   0.908
    ##  9 Minneapolis,MN      0.947    0.476      1.88   0.876
    ## 10 Indianapolis,IN     0.919    0.678      1.24   0.582
    ## # ℹ 37 more rows
…
